^D:\MAGSHIMIM\YEAR 2\C++\11.11.2020\11.11.2020\11.11.2020\DEBUG\TESTER.OBJ|D:\MAGSHIMIM\YEAR 2\C++\11.11.2020\11.11.2020\11.11.2020\DEBUG\VECTOR.OBJ
/OUT:"D:\MAGSHIMIM\YEAR 2\C++\11.11.2020\11.11.2020\DEBUG\11.11.2020.EXE" /INCREMENTAL /NOLOGO KERNEL32.LIB USER32.LIB GDI32.LIB WINSPOOL.LIB COMDLG32.LIB ADVAPI32.LIB SHELL32.LIB OLE32.LIB OLEAUT32.LIB UUID.LIB ODBC32.LIB ODBCCP32.LIB /MANIFEST /MANIFESTUAC:"level='asInvoker' uiAccess='false'" /manifest:embed /DEBUG:FASTLINK /PDB:"D:\MAGSHIMIM\YEAR 2\C++\11.11.2020\11.11.2020\DEBUG\11.11.2020.PDB" /SUBSYSTEM:CONSOLE /TLBID:1 /DYNAMICBASE /NXCOMPAT /IMPLIB:"D:\MAGSHIMIM\YEAR 2\C++\11.11.2020\11.11.2020\DEBUG\11.11.2020.LIB" /MACHINE:X86 DEBUG\TESTER.OBJ
DEBUG\VECTOR.OBJ
^D:\MAGSHIMIM\YEAR 2\C++\11.11.2020\DEBUG\TESTER.OBJ|D:\MAGSHIMIM\YEAR 2\C++\11.11.2020\DEBUG\VECTOR.OBJ
/OUT:"D:\MAGSHIMIM\YEAR 2\C++\11.11.2020\DEBUG\11.11.2020.EXE" /INCREMENTAL /NOLOGO KERNEL32.LIB USER32.LIB GDI32.LIB WINSPOOL.LIB COMDLG32.LIB ADVAPI32.LIB SHELL32.LIB OLE32.LIB OLEAUT32.LIB UUID.LIB ODBC32.LIB ODBCCP32.LIB /MANIFEST /MANIFESTUAC:"level='asInvoker' uiAccess='false'" /manifest:embed /DEBUG:FASTLINK /PDB:"D:\MAGSHIMIM\YEAR 2\C++\11.11.2020\DEBUG\11.11.2020.PDB" /SUBSYSTEM:CONSOLE /TLBID:1 /DYNAMICBASE /NXCOMPAT /IMPLIB:"D:\MAGSHIMIM\YEAR 2\C++\11.11.2020\DEBUG\11.11.2020.LIB" /MACHINE:X86 DEBUG\TESTER.OBJ
DEBUG\VECTOR.OBJ
